id;name;description;address;address_2;city;state;postal_code
1;Global deposit hack;Program Kenya parallelism;Berkshire e-business;programming;Zellaborough;Virginia incubate Director;Chicken capacitor circuit
2;firewall;Rustic;Awesome;Research Customizable;North Claud;Dynamic;Assistant Pine programming
3;Mews Investor;ADP connecting;bifurcated enterprise SCSI;Togo intranet;Danetown;XSS;responsive
4;Savings Account program;bypassing Bedfordshire;exploit invoice quantifying;Clothing Metal Niger;North Archview;action-items Human;withdrawal
5;Frozen Small Wooden Gloves Operative;invoice Intelligent Metal Fish;Rubber Buckinghamshire;facilitate payment;North Sally;HTTP Florida Computers;convergence Awesome Steel Tuna Function-based
6;magenta Handcrafted Steel Table;Fantastic Rubber Mouse;Tasty;world-class Agent;Cobybury;national digital Baby;embrace vertical
7;Small Plastic Tuna repurpose;GB;Programmable challenge;Kroon;Beattychester;Borders;eyeballs payment
8;calculate Research;Sharable;AGP Sudanese Pound Money Market Account;Auto Loan Account;Maxieview;scale Small Metal Tuna National;parse
9;responsive Avon Cotton;Handcrafted HDD;Chips wireless;Ergonomic Soft Car;West Minniechester;calculating Progressive;alliance
10;Lead;engineer success indigo;Avon;Engineer;Tomasaton;Small Soft Shirt contingency Surinam Dollar;hacking
